module github.com/guyu96/go-timbre

require (
	github.com/Nik-U/pbc v0.0.0-20181205041846-3e516ca0c5d6
	github.com/beevik/ntp v0.2.0 // indirect
	github.com/boltdb/bolt v1.3.1
	github.com/dgrijalva/jwt-go v3.2.0+incompatible
	github.com/gogo/protobuf v1.3.1
	github.com/golang/protobuf v1.4.2
	github.com/google/pprof v0.0.0-20200417002340-c6e0a841f49a // indirect
	github.com/gorilla/mux v1.7.3
	github.com/gorilla/websocket v1.4.1
	github.com/grpc-ecosystem/grpc-gateway v1.12.1
	github.com/hashicorp/serf v0.8.5
	github.com/ianlancetaylor/demangle v0.0.0-20200414190113-039b1ae3a340 // indirect
	github.com/mbilal92/noise v1.1.3-0.20200616212415-4f14ffb6032e
	github.com/mbilal92/pbc v0.0.0-20191028123034-102450002bfe
	github.com/oasislabs/ed25519 v0.0.0-20200302143042-29f6767a7c3e
	github.com/rs/cors v1.7.0
	github.com/rs/zerolog v1.11.0
	github.com/stretchr/testify v1.4.0
	github.com/tebeka/atexit v0.1.0 // indirect
	golang.org/x/crypto v0.0.0-20191119213627-4f8c1d86b1ba
	golang.org/x/sync v0.0.0-20190423024810-112230192c58
	golang.org/x/sys v0.0.0-20200409092240-59c9f1ba88fa // indirect
	golang.org/x/text v0.3.2 // indirect
	google.golang.org/genproto v0.0.0-20190927181202-20e1ac93f88c
	google.golang.org/grpc v1.27.0
)

go 1.13
